…
# Get the results into R

To work with the results from the previous Python code, in RStudio you can use the `py` R object. Subsetting to an individual Python object is done using the `$` R operator. On the other hand R objects can be accessed from Python via the `r` object in your Python environment. Subsetting on the R object level can be achieved using a `.` (dot)). Below I show you examples for both cases:

## Accessing Python objects from R

```r
py$x_test %>% as_tibble()
```

```
## # A tibble: 10,000 x 784
##       V1    V2    V3    V4    V5    V6    V7    V8    V9   V10   V11   V12   V13
##    <dbl> <dbl> <dbl> <dbl> <dbl> <dbl> <dbl> <dbl> <dbl> <dbl> <dbl> <dbl> <dbl>
##  1     0     0     0     0     0     0     0     0     0     0     0     0     0
##  2     0     0     0     0     0     0     0     0     0     0     0     0     0
##  3     0     0     0     0     0     0     0     0     0     0     0     0     0
##  4     0     0     0     0     0     0     0     0     0     0     0     0     0
##  5     0     0     0     0     0     0     0     0     0     0     0     0     0
##  6     0     0     0     0     0     0     0     0     0     0     0     0     0
##  7     0     0     0     0     0     0     0     0     0     0     0     0     0
##  8     0     0     0     0     0     0     0     0     0     0     0     0     0
##  9     0     0     0     0     0     0     0     0     0     0     0     0     0
## 10     0     0     0     0     0     0     0     0     0     0     0     0     0
## # ... with 9,990 more rows, and 771 more variables: V14 <dbl>, V15 <dbl>,
## #   V16 <dbl>, V17 <dbl>, V18 <dbl>, V19 <dbl>, V20 <dbl>, V21 <dbl>,
## #   V22 <dbl>, V23 <dbl>, V24 <dbl>, V25 <dbl>, V26 <dbl>, V27 <dbl>,
## #   V28 <dbl>, V29 <dbl>, V30 <dbl>, V31 <dbl>, V32 <dbl>, V33 <dbl>,
## #   V34 <dbl>, V35 <dbl>, V36 <dbl>, V37 <dbl>, V38 <dbl>, V39 <dbl>,
## #   V40 <dbl>, V41 <dbl>, V42 <dbl>, V43 <dbl>, V44 <dbl>, V45 <dbl>,
## #   V46 <dbl>, V47 <dbl>, V48 <dbl>, V49 <dbl>, V50 <dbl>, V51 <dbl>,
## #   V52 <dbl>, V53 <dbl>, V54 <dbl>, V55 <dbl>, V56 <dbl>, V57 <dbl>,
## #   V58 <dbl>, V59 <dbl>, V60 <dbl>, V61 <dbl>, V62 <dbl>, V63 <dbl>,
…
```r
library(keras)
mnist_r <- dataset_mnist()
x_train <- mnist_r$train$x
y_train <- mnist_r$train$y
x_test <- mnist_r$test$x
y_test <- mnist_r$test$y

## show one object
x_train %>% as_tibble()
```

```
## # A tibble: 60,000 x 784
##       V1    V2    V3    V4    V5    V6    V7    V8    V9   V10   V11   V12   V13
##    <int> <int> <int> <int> <int> <int> <int> <int> <int> <int> <int> <int> <int>
##  1     0     0     0     0     0     0     0     0     0     0     0     0     0
##  2     0     0     0     0     0     0     0     0     0     0     0     0     0
##  3     0     0     0     0     0     0     0     0     0     0     0     0     0
##  4     0     0     0     0     0     0     0     0     0     0     0     0     0
##  5     0     0     0     0     0     0     0     0     0     0     0     0     0
##  6     0     0     0     0     0     0     0     0     0     0     0     0     0
##  7     0     0     0     0     0     0     0     0     0     0     0     0     0
##  8     0     0     0     0     0     0     0     0     0     0     0     0     0
##  9     0     0     0     0     0     0     0     0     0     0     0     0     0
## 10     0     0     0     0     0     0     0     0     0     0     0     0     0
## # ... with 59,990 more rows, and 771 more variables: V14 <int>, V15 <int>,
## #   V16 <int>, V17 <int>, V18 <int>, V19 <int>, V20 <int>, V21 <int>,
## #   V22 <int>, V23 <int>, V24 <int>, V25 <int>, V26 <int>, V27 <int>,
## #   V28 <int>, V29 <int>, V30 <int>, V31 <int>, V32 <int>, V33 <int>,
## #   V34 <int>, V35 <int>, V36 <int>, V37 <int>, V38 <int>, V39 <int>,
## #   V40 <int>, V41 <int>, V42 <int>, V43 <int>, V44 <int>, V45 <int>,
## #   V46 <int>, V47 <int>, V48 <int>, V49 <int>, V50 <int>, V51 <int>,
## #   V52 <int>, V53 <int>, V54 <int>, V55 <int>, V56 <int>, V57 <int>,
## #   V58 <int>, V59 <int>, V60 <int>, V61 <int>, V62 <int>, V63 <int>,
…
